dump.vcd
$date
	Mon Jul  1 23:37:58 2024
$end
$version
	QuestaSim Version 2023.1
$end
$timescale
	100ps
$end

$scope module top $end
$var reg 1 ! clk $end
$var reg 1 " reset $end

$scope module DUV $end
$var wire 1 # address [4] $end
$var wire 1 $ address [3] $end
$var wire 1 % address [2] $end
$var wire 1 & address [1] $end
$var wire 1 ' address [0] $end
$var wire 1 ( clk $end
$var wire 1 ) data_in [7] $end
$var wire 1 * data_in [6] $end
$var wire 1 + data_in [5] $end
$var wire 1 , data_in [4] $end
$var wire 1 - data_in [3] $end
$var wire 1 . data_in [2] $end
$var wire 1 / data_in [1] $end
$var wire 1 0 data_in [0] $end
$var wire 1 1 read_enb $end
$var wire 1 2 reset $end
$var wire 1 3 write_enb $end
$var reg 8 4 data_out [7:0] $end
$upscope $end

$scope module intrf $end
$var reg 5 5 address [4:0] $end
$var reg 8 6 data_in [7:0] $end
$var reg 8 7 data_out [7:0] $end
$var reg 1 8 read_enb $end
$var reg 1 9 write_enb $end
$var reg 1 : clk $end
$var reg 1 ; reset $end

$scope begin drv_cb $end
$var event 1 < drv_cb_event $end
$var reg 5 = address [4:0] $end
$var reg 8 > data_in [7:0] $end
$var reg 1 ? read_enb $end
$var reg 1 @ write_enb $end
$var reg 1 A reset $end
$upscope $end

$scope begin mon_cb $end
$var event 1 B mon_cb_event $end
$var reg 8 C data_out [7:0] $end
$upscope $end

$scope begin ref_cb $end
$var event 1 D ref_cb_event $end
$upscope $end
$upscope $end
$upscope $end

$scope begin design_sv_unit $end
$var parameter 32 E ADDR_WIDTH $end

$scope function log2 $end
$var integer 32 F log2 $end
$var integer 32 G n $end
$upscope $end
$upscope $end

$scope begin std $end
$upscope $end
$enddefinitions $end
#0
$dumpvars
x1
x3
x0
x/
x.
x-
x,
x+
x*
x)
x'
x&
x%
x$
x#
x2
0(
0!
x"
b101 E
b101 F
b100000 G
bx 4
bx 5
bx 6
bx 7
x8
x9
0:
0;
1<
bx =
bx >
x?
x@
0A
1B
bx C
1D
$end
#200
1!
1:
1(
0"
02
bz 4
bz 7
bz C
1<
1B
1D
#400
0!
0:
0(
#600
1!
1:
1(
1"
1;
12
1A
1<
1B
1D
#800
0!
0:
0(
#1000
1!
1:
1(
1<
1B
1D
#1200
0!
0:
0(
#1400
1!
1:
1(
1<
1B
1D
0@
0?
b1000011 >
b1 =
09
08
b1000011 6
b1 5
03
01
1'
0&
0%
0$
0#
10
1/
0.
0-
0,
0+
1*
0)
#1600
0!
0:
0(
#1800
1!
1:
1(
1<
1B
1D
0@
#2000
0!
0:
0(
#2200
1!
1:
1(
1<
1B
1D
0@
0?
b1110111 >
b11100 =
b1110111 6
b11100 5
0'
1%
1$
1#
1.
1,
1+
#2400
0!
0:
0(
#2600
1!
1:
1(
1<
1B
1D
0@
#2800
0!
0:
0(
#3000
1!
1:
1(
1<
1B
1D
0@
0?
b101111 >
b1010 =
b101111 6
b1010 5
1&
0%
0#
1-
0,
0*
#3200
0!
0:
0(
#3400
1!
1:
1(
1<
1B
1D
0@
#3600
0!
0:
0(
#3800
1!
1:
1(
1<
1B
1D
0@
1?
b11011110 >
b100 =
18
b11011110 6
b100 5
11
0&
1%
0$
00
1,
0+
1*
1)
#4000
0!
0:
0(
#4200
1!
1:
1(
bx 4
bx 7
bx C
1<
1B
1D
0@
#4400
0!
0:
0(
#4600
1!
1:
1(
1<
1B
1D
1@
0?
b1111 >
b111 =
19
08
b1111 6
b111 5
13
01
1'
1&
10
0,
0*
0)
#4800
0!
0:
0(
#5000
1!
1:
1(
bz 4
bz 7
bz C
1<
1B
1D
0@
09
03
#5200
0!
0:
0(
#5400
1!
1:
1(
1<
1B
1D
1@
0?
b1011000 >
b10000 =
19
b1011000 6
b10000 5
13
0'
0&
0%
1#
00
0/
0.
1,
1*
#5600
0!
0:
0(
#5800
1!
1:
1(
1<
1B
1D
0@
09
03
#6000
0!
0:
0(
#6200
1!
1:
1(
1<
1B
1D
0@
1?
b11110 >
b110 =
18
b11110 6
b110 5
11
1&
1%
0#
1/
1.
0*
#6400
0!
0:
0(
#6600
1!
1:
1(
bx 4
bx 7
bx C
1<
1B
1D
0@
#6800
0!
0:
0(
#7000
1!
1:
1(
1<
1B
1D
1@
0?
b101000 >
b10000 =
19
08
b101000 6
b10000 5
13
01
0&
0%
1#
0/
0.
0,
1+
#7200
0!
0:
0(
#7400
1!
1:
1(
bz 4
bz 7
bz C
1<
1B
1D
0@
09
03
#7600
0!
0:
0(
#7800
1!
1:
1(
1<
1B
1D
0@
0?
b10001100 >
b11110 =
b10001100 6
b11110 5
1&
1%
1$
1.
0+
1)
#8000
0!
0:
0(
#8200
1!
1:
1(
1<
1B
1D
0@
#8400
0!
0:
0(
#8600
1!
1:
1(
1<
1B
1D
0@
0?
b110101 >
b11 =
b110101 6
b11 5
1'
0%
0$
0#
10
0-
1,
1+
0)
#8800
0!
0:
0(
#9000
1!
1:
1(
1<
1B
1D
0@
#9200
0!
0:
0(
#9400
1!
1:
1(
1<
1B
1D
0@
1?
b101100 >
b1101 =
18
b101100 6
b1101 5
11
0&
1%
1$
00
1-
0,
#9600
0!
0:
0(
#9800
1!
1:
1(
bx 4
bx 7
bx C
1<
1B
1D
0@
#10000
0!
0:
0(
#10200
1!
1:
1(
1<
1B
1D
0@
1?
b111001 >
b1 =
b111001 6
b1 5
0%
0$
10
0.
1,
#10400
0!
0:
0(
#10600
1!
1:
1(
1<
1B
1D
0@
#10800
0!
0:
0(
#11000
1!
1:
1(
1<
1B
1D
0@
1?
b11011111 >
b10001 =
b11011111 6
b10001 5
1#
1/
1.
0+
1*
1)
#11200
0!
0:
0(
#11400
1!
1:
1(
1<
1B
1D
0@
#11600
0!
0:
0(
#11800
1!
1:
1(
1<
1B
1D
0@
0?
b10011 >
b10101 =
08
b10011 6
b10101 5
01
1%
0.
0-
0*
0)
#12000
0!
0:
0(
#12200
1!
1:
1(
bz 4
bz 7
bz C
1<
1B
1D
0@
#12400
0!
0:
0(
#12600
1!
1:
1(
1<
1B
1D
0@
0?
b11111 >
b11011 =
b11111 6
b11011 5
1&
0%
1$
1.
1-
#12800
0!
0:
0(
#13000
1!
1:
1(
1<
1B
1D
0@
#13200
0!
0:
0(
#13400
1!
1:
1(
1<
1B
1D
0@
0?
b1011000 >
b1001 =
b1011000 6
b1001 5
0&
0#
00
0/
0.
1*
#13600
0!
0:
0(
#13800
1!
1:
1(
1<
1B
1D
0@
#14000
0!
0:
0(
#14200
1!
1:
1(
1<
1B
1D
0@
0?
b11000010 >
b10101 =
b11000010 6
b10101 5
1%
0$
1#
1/
0-
0,
1)
#14400
0!
0:
0(
#14600
1!
1:
1(
1<
1B
1D
0@
#14800
0!
0:
0(
#15000
1!
1:
1(
1<
1B
1D
1@
0?
b11000111 >
b1110 =
19
b11000111 6
b1110 5
13
0'
1&
1$
0#
10
1.
#15200
0!
0:
0(
#15400
1!
1:
1(
1<
1B
1D
0@
09
03
#15600
0!
0:
0(
#15800
1!
1:
1(
1<
1B
1D
0@
0?
b100110 >
b1001 =
b100110 6
b1001 5
1'
0&
0%
00
1+
0*
0)
#16000
0!
0:
0(
#16200
1!
1:
1(
1<
1B
1D
0@
#16400
0!
0:
0(
#16600
1!
1:
1(
1<
1B
1D
1@
0?
b11100001 >
b11000 =
19
b11100001 6
b11000 5
13
0'
1#
10
0/
0.
1*
1)
#16800
0!
0:
0(
#17000
1!
1:
1(
1<
1B
1D
0@
09
03
#17200
0!
0:
0(
#17400
1!
1:
1(
1<
1B
1D
1@
0?
b10111111 >
b11000 =
19
b10111111 6
13
1/
1.
1-
1,
0*
#17600
0!
0:
0(
#17800
1!
1:
1(
1<
1B
1D
0@
09
03
#18000
0!
0:
0(
#18200
1!
1:
1(
1<
1B
1D
0@
1?
b111000 >
b110 =
18
b111000 6
b110 5
11
1&
1%
0$
0#
00
0/
0.
0)
#18400
0!
0:
0(
#18600
1!
1:
1(
bx 4
bx 7
bx C
1<
1B
1D
0@
#18800
0!
0:
0(
#19000
1!
1:
1(
1<
1B
1D
0@
0?
b1000010 >
b111 =
08
b1000010 6
b111 5
01
1'
1/
0-
0,
0+
1*
#19200
0!
0:
0(
#19400
1!
1:
1(
bz 4
bz 7
bz C
1<
1B
1D
0@
#19600
0!
0:
0(
#19800
1!
1:
1(
1<
1B
1D
0@
0?
b10111000 >
b1001 =
b10111000 6
b1001 5
0&
0%
1$
0/
1-
1,
1+
0*
1)
#20000
0!
0:
0(
#20200
1!
1:
1(
1<
1B
1D
0@
#20400
0!
0:
0(
#20600
1!
1:
1(
1<
1B
1D
0@
1?
b1011101 >
b11011 =
18
b1011101 6
b11011 5
11
1&
1#
10
1.
0+
1*
0)
#20800
0!
0:
0(
#21000
1!
1:
1(
bx 4
bx 7
bx C
1<
1B
1D
0@
#21200
0!
0:
0(
#21400
1!
1:
1(
1<
1B
1D
0@
1?
b11001001 >
b10011 =
b11001001 6
b10011 5
0$
0.
0,
1)
#21600
0!
0:
0(
#21800
1!
1:
1(
1<
1B
1D
0@
#22000
0!
0:
0(
#22200
1!
1:
1(
1<
1B
1D
0@
0?
b1111001 >
b10 =
08
b1111001 6
b10 5
01
0'
0#
1,
1+
0)
#22400
0!
0:
0(
#22600
1!
1:
1(
bz 4
bz 7
bz C
1<
1B
1D
0@
#22800
0!
0:
0(
#23000
1!
1:
1(
1<
1B
1D
1@
0?
b11010111 >
b11101 =
19
b11010111 6
b11101 5
13
1'
0&
1%
1$
1#
1/
1.
0-
0+
1)
#23200
0!
0:
0(
#23400
1!
1:
1(
1<
1B
1D
0@
09
03
#23600
0!
0:
0(
#23800
1!
1:
1(
1<
1B
1D
0@
1?
b10000110 >
b1 =
18
b10000110 6
b1 5
11
0%
0$
0#
00
0,
0*
#24000
0!
0:
0(
#24200
1!
1:
1(
bx 4
bx 7
bx C
1<
1B
1D
0@
#24400
0!
0:
0(
#24600
1!
1:
1(
1<
1B
1D
1@
0?
b1010110 >
b11101 =
19
08
b1010110 6
b11101 5
13
01
1%
1$
1#
1,
1*
0)
#24800
0!
0:
0(
#25000
1!
1:
1(
bz 4
bz 7
bz C
1<
1B
1D
0@
09
03
#25200
0!
0:
0(
#25400
1!
1:
1(
1<
1B
1D
0@
0?
b11100001 >
b0 =
b11100001 6
b0 5
0'
0%
0$
0#
10
0/
0.
0,
1+
1)
#25600
0!
0:
0(
#25800
1!
1:
1(
1<
1B
1D
0@
#26000
0!
0:
0(
#26200
1!
1:
1(
1<
1B
1D
1@
0?
b10000111 >
b100 =
19
b10000111 6
b100 5
13
1%
1/
1.
0+
0*
#26400
0!
0:
0(
#26600
1!
1:
1(
1<
1B
1D
0@
09
03
#26800
0!
0:
0(
#27000
1!
1:
1(
1<
1B
1D
0@
0?
b11110001 >
b1011 =
b11110001 6
b1011 5
1'
1&
0%
1$
0/
0.
1,
1+
1*
#27200
0!
0:
0(
#27400
1!
1:
1(
1<
1B
1D
0@
#27600
0!
0:
0(
#27800
1!
1:
1(
1<
1B
1D
0@
0?
b1010010 >
b1110 =
b1010010 6
b1110 5
0'
1%
00
1/
0+
0)
#28000
0!
0:
0(
#28200
1!
1:
1(
1<
1B
1D
0@
#28400
0!
0:
0(
#28600
1!
1:
1(
1<
1B
1D
1@
0?
b1010010 >
b1100 =
19
b1100 5
13
0&
#28800
0!
0:
0(
#29000
1!
1:
1(
1<
1B
1D
0@
09
03
#29200
0!
0:
0(
#29400
1!
1:
1(
1<
1B
1D
1@
0?
b1111 >
b11011 =
19
b1111 6
b11011 5
13
1'
1&
0%
1#
10
1.
1-
0,
0*
#29600
0!
0:
0(
#29800
1!
1:
1(
1<
1B
1D
0@
09
03
#30000
0!
0:
0(
#30200
1!
1:
1(
1<
1B
1D
1@
0?
b1101111 >
b1110 =
19
b1101111 6
b1110 5
13
0'
1%
0#
1+
1*
#30400
0!
0:
0(
#30600
1!
1:
1(
1<
1B
1D
0@
09
03
#30800
0!
0:
0(
#31000
1!
1:
1(
1<
1B
1D
0@
1?
b101 >
b10111 =
18
b101 6
b10111 5
11
1'
0$
1#
0/
0-
0+
0*
#31200
0!
0:
0(
#31400
1!
1:
1(
bx 4
bx 7
bx C
1<
1B
1D
0@
#31600
0!
0:
0(
#31800
1!
1:
1(
1<
1B
1D
0@
1?
b110000 >
b1000 =
b110000 6
b1000 5
0'
0&
0%
1$
0#
00
0.
1,
1+
#32000
0!
0:
0(
#32200
1!
1:
1(
1<
1B
1D
0@
#32400
0!
0:
0(
#32600
1!
1:
1(
1<
1B
1D
0@
1?
b10000010 >
b10010 =
b10000010 6
b10010 5
1&
0$
1#
1/
0,
0+
1)
#32800
0!
0:
0(
#33000
1!
1:
1(
1<
1B
1D
0@
#33200
0!
0:
0(
#33400
1!
1:
1(
1<
1B
1D
0@
0?
b1011110 >
b10010 =
08
b1011110 6
01
1.
1-
1,
1*
0)
#33600
0!
0:
0(
#33800
1!
1:
1(
bz 4
bz 7
bz C
1<
1B
1D
0@
#34000
0!
0:
0(
#34200
1!
1:
1(
1<
1B
1D
1@
0?
b10110101 >
b1011 =
19
b10110101 6
b1011 5
13
1'
1$
0#
10
0/
0-
1+
0*
1)
#34400
0!
0:
0(
#34600
1!
1:
1(
1<
1B
1D
0@
09
03
#34800
0!
0:
0(
#35000
1!
1:
1(
1<
1B
1D
1@
0?
b11010111 >
b10011 =
19
b11010111 6
b10011 5
13
0$
1#
1/
0+
1*
#35200
0!
0:
0(
#35400
1!
1:
1(
1<
1B
1D
0@
09
03
#35600
0!
0:
0(
#35800
1!
1:
1(
1<
1B
1D
0@
0?
b1010011 >
b10001 =
b1010011 6
b10001 5
0&
0.
0)
#36000
0!
0:
0(
#36200
1!
1:
1(
1<
1B
1D
0@
#36400
0!
0:
0(
#36600
1!
1:
1(
1<
1B
1D
0@
1?
b1100001 >
b10001 =
18
b1100001 6
11
0/
0,
1+
#36800
0!
0:
0(
#37000
1!
1:
1(
bx 4
bx 7
bx C
1<
1B
1D
0@
#37200
0!
0:
0(
#37400
1!
1:
1(
1<
1B
1D
1@
0?
b10101111 >
b10110 =
19
08
b10101111 6
b10110 5
13
01
0'
1&
1%
1/
1.
1-
0*
1)
#37600
0!
0:
0(
#37800
1!
1:
1(
bz 4
bz 7
bz C
1<
1B
1D
0@
09
03
#38000
0!
0:
0(
#38200
1!
1:
1(
1<
1B
1D
1@
0?
b1101001 >
b11001 =
19
b1101001 6
b11001 5
13
1'
0&
0%
1$
0/
0.
1*
0)
#38400
0!
0:
0(
#38600
1!
1:
1(
1<
1B
1D
0@
09
03
#38800
0!
0:
0(
#39000
1!
1:
1(
1<
1B
1D
1@
0?
b10001100 >
b0 =
19
b10001100 6
b0 5
13
0'
0$
0#
00
1.
0+
0*
1)
#39200
0!
0:
0(
#39400
1!
1:
1(
1<
1B
1D
0@
09
03
#39600
0!
0:
0(
#39800
1!
1:
1(
1<
1B
1D
0@
1?
b10000 >
b11000 =
18
b10000 6
b11000 5
11
1$
1#
0.
0-
1,
0)
#40000
0!
0:
0(
#40200
1!
1:
1(
b10111111 4
b10111111 7
b10111111 C
1<
1B
1D
0@
#40400
0!
0:
0(
#40600
1!
1:
1(
1<
1B
1D
0@
0?
b100100 >
b11 =
08
b100100 6
b11 5
01
1'
1&
0$
0#
1.
0,
1+
#40800
0!
0:
0(
#41000
1!
1:
1(
bz 4
bz 7
bz C
1<
1B
1D
0@
#41200
0!
0:
0(
#41400
1!
1:
1(
1<
1B
1D
1@
0?
b111001 >
b11001 =
19
b111001 6
b11001 5
13
0&
1$
1#
10
0.
1-
1,
#41600
0!
0:
0(
#41800
1!
1:
1(
1<
1B
1D
0@
09
03
#42000
0!
0:
0(
#42200
1!
1:
1(
1<
1B
1D
0@
0?
b11001011 >
b0 =
b11001011 6
b0 5
0'
0$
0#
1/
0,
0+
1*
1)
#42400
0!
0:
0(
#42600
1!
1:
1(
1<
1B
1D
0@
#42800
0!
0:
0(
#43000
1!
1:
1(
1<
1B
1D
1@
0?
b1011111 >
b11101 =
19
b1011111 6
b11101 5
13
1'
1%
1$
1#
1.
1,
0)
#43200
0!
0:
0(
#43400
1!
1:
1(
1<
1B
1D
0@
09
03
#43600
0!
0:
0(
#43800
1!
1:
1(
1<
1B
1D
0@
1?
b101100 >
b10110 =
18
b101100 6
b10110 5
11
0'
1&
0$
00
0/
0,
1+
0*
#44000
0!
0:
0(
#44200
1!
1:
1(
b10101111 4
b10101111 7
b10101111 C
1<
1B
1D
0@
#44400
0!
0:
0(
#44600
1!
1:
1(
1<
1B
1D
0@
0?
b100010 >
b1 =
08
b100010 6
b1 5
01
1'
0&
0%
0#
1/
0.
0-
#44800
0!
0:
0(
#45000
1!
1:
1(
bz 4
bz 7
bz C
1<
1B
1D
0@
#45200
0!
0:
0(
#45400
1!
1:
1(
1<
1B
1D
0@
0?
b11101100 >
b1000 =
b11101100 6
b1000 5
0'
1$
0/
1.
1-
1*
1)
#45600
0!
0:
0(
#45800
1!
1:
1(
1<
1B
1D
0@
#46000
0!
0:
0(
#46200
1!
1:
1(
1<
1B
1D
1@
0?
b11011100 >
b101 =
19
b11011100 6
b101 5
13
1'
1%
0$
1,
0+
#46400
0!
0:
0(
#46600
1!
1:
1(
1<
1B
1D
0@
09
03
#46800
0!
0:
0(
#47000
1!
1:
1(
1<
1B
1D
1@
0?
b11000010 >
b101 =
19
b11000010 6
13
1/
0.
0-
0,
#47200
0!
0:
0(
#47400
1!
1:
1(
1<
1B
1D
0@
09
03
#47600
0!
0:
0(
#47800
1!
1:
1(
1<
1B
1D
0@
0?
b1101111 >
b10111 =
b1101111 6
b10111 5
1&
1#
10
1.
1-
1+
0)
#48000
0!
0:
0(
#48200
1!
1:
1(
1<
1B
1D
0@
#48400
0!
0:
0(
#48600
1!
1:
1(
1<
1B
1D
0@
1?
b11000101 >
b101 =
18
b11000101 6
b101 5
11
0&
0#
0/
0-
0+
1)
#48800
0!
0:
0(
#49000
1!
1:
1(
b11000010 4
b11000010 7
b11000010 C
1<
1B
1D
0@
#49200
0!
0:
0(
#49400
1!
1:
1(
1<
1B
1D
0@
1?
b11100011 >
b1001 =
b11100011 6
b1001 5
0%
1$
1/
0.
1+
#49600
0!
0:
0(
#49800
1!
1:
1(
bx 4
bx 7
bx C
1<
1B
1D
0@
#50000
0!
0:
0(
#50200
1!
1:
1(
1<
1B
1D
0@
1?
b10110000 >
b10110 =
b10110000 6
b10110 5
0'
1&
1%
0$
1#
00
0/
1,
0*
#50400
0!
0:
0(
#50600
1!
1:
1(
b10101111 4
b10101111 7
b10101111 C
1<
1B
1D
0@
#50800
0!
0:
0(
#51000
1!
1:
1(
1<
1B
1D
0@
1?
b10011001 >
b0 =
b10011001 6
b0 5
0&
0%
0#
10
1-
0+
#51200
0!
0:
0(
#51400
1!
1:
1(
b10001100 4
b10001100 7
b10001100 C
1<
1B
1D
0@
#51600
0!
0:
0(
#51800
1!
1:
1(
1<
1B
1D
1@
0?
b11111111 >
b11000 =
19
08
b11111111 6
b11000 5
13
01
1$
1#
1/
1.
1+
1*
#52000
0!
0:
0(
#52200
1!
1:
1(
bz 4
bz 7
bz C
1<
1B
1D
0@
09
03
#52400
0!
0:
0(
#52600
1!
1:
1(
1<
1B
1D
1@
0?
b11001101 >
b1010 =
19
b11001101 6
b1010 5
13
1&
0#
0/
0,
0+
#52800
0!
0:
0(
#53000
1!
1:
1(
1<
1B
1D
0@
09
03
#53200
0!
0:
0(
#53400
1!
1:
1(
1<
1B
1D
1@
0?
b1011111 >
b101 =
19
b1011111 6
b101 5
13
1'
0&
1%
0$
1/
1,
0)
#53600
0!
0:
0(
#53800
1!
1:
1(
1<
1B
1D
0@
09
03
#54000
0!
0:
0(
#54200
1!
1:
1(
1<
1B
1D
1@
0?
b1011001 >
b11101 =
19
b1011001 6
b11101 5
13
1$
1#
0/
0.
#54400
0!
0:
0(
#54600
1!
1:
1(
1<
1B
1D
0@
09
03
#54800
0!
0:
0(
#55000
1!
1:
1(
1<
1B
1D
0@
1?
b1111110 >
b110 =
18
b1111110 6
b110 5
11
0'
1&
0$
0#
00
1/
1.
1+
#55200
0!
0:
0(
#55400
1!
1:
1(
bx 4
bx 7
bx C
1<
1B
1D
0@
#55600
0!
0:
0(
#55800
1!
1:
1(
1<
1B
1D
0@
1?
b1010011 >
b1110 =
b1010011 6
b1110 5
1$
10
0.
0-
0+
#56000
0!
0:
0(
#56200
1!
1:
1(
b1101111 4
b1101111 7
b1101111 C
1<
1B
1D
0@
#56400
0!
0:
0(
#56600
1!
1:
1(
1<
1B
1D
0@
1?
b11111001 >
b1111 =
b11111001 6
b1111 5
1'
0/
1-
1+
1)
#56800
0!
0:
0(
#57000
1!
1:
1(
bx 4
bx 7
bx C
1<
1B
1D
0@
#57200
0!
0:
0(
#57400
1!
1:
1(
1<
1B
1D
1@
0?
b10110111 >
b100 =
19
08
b10110111 6
b100 5
13
01
0'
0&
0$
1/
1.
0-
0*
#57600
0!
0:
0(
#57800
1!
1:
1(
bz 4
bz 7
bz C
1<
1B
1D
0@
09
03
#58000
0!
0:
0(
#58200
1!
1:
1(
1<
1B
1D
0@
1?
b10001101 >
b1011 =
18
b10001101 6
b1011 5
11
1'
1&
0%
1$
0/
1-
0,
0+
#58400
0!
0:
0(
#58600
1!
1:
1(
b10110101 4
b10110101 7
b10110101 C
1<
1B
1D
0@
#58800
0!
0:
0(
#59000
1!
1:
1(
1<
1B
1D
0@
0?
b10001 >
b11011 =
08
b10001 6
b11011 5
01
1#
0.
0-
1,
0)
#59200
0!
0:
0(
#59400
1!
1:
1(
bz 4
bz 7
bz C
1<
1B
1D
0@
#59600
0!
0:
0(
#59800
1!
1:
1(
1<
1B
1D
0@
0?
b10001010 >
b1010 =
b10001010 6
b1010 5
0'
0#
00
1/
1-
0,
1)
#60000
0!
0:
0(
#60200
1!
1:
1(
1<
1B
1D
0@
#60400
0!
0:
0(
#60600
1!
1:
1(
1<
1B
1D
1@
0?
b111000 >
b1000 =
19
b111000 6
b1000 5
13
0&
0/
1,
1+
0)
#60800
0!
0:
0(
#61000
1!
1:
1(
1<
1B
1D
0@
09
03
#61200
0!
0:
0(
#61400
1!
1:
1(
1<
1B
1D
1@
0?
b10110111 >
b10111 =
19
b10110111 6
b10111 5
13
1'
1&
1%
0$
1#
10
1/
1.
0-
1)
#61600
0!
0:
0(
#61800
1!
1:
1(
1<
1B
1D
0@
09
03
#62000
0!
0:
0(
#62200
1!
1:
1(
1<
1B
1D
1@
0?
b11111000 >
b101 =
19
b11111000 6
b101 5
13
0&
0#
00
0/
0.
1-
1*
#62400
0!
0:
0(
#62600
1!
1:
1(
1<
1B
1D
0@
09
03
#62800
0!
0:
0(
#63000
1!
1:
1(
1<
1B
1D
1@
0?
b110100 >
b10011 =
19
b110100 6
b10011 5
13
1&
0%
1#
1.
0-
0*
0)
#63200
0!
0:
0(
#63400
1!
1:
1(
1<
1B
1D
0@
09
03
#63600
0!
0:
0(
#63800
1!
1:
1(
1<
1B
1D
0@
1?
b10011111 >
b1 =
18
b10011111 6
b1 5
11
0&
0#
10
1/
1-
0+
1)
#64000
0!
0:
0(
#64200
1!
1:
1(
bx 4
bx 7
bx C
1<
1B
1D
0@
#64400
0!
0:
0(
#64600
1!
1:
1(
1<
1B
1D
1@
0?
b100011 >
b11101 =
19
08
b100011 6
b11101 5
13
01
1%
1$
1#
0.
0-
0,
1+
0)
#64800
0!
0:
0(
#65000
1!
1:
1(
bz 4
bz 7
bz C
1<
1B
1D
0@
09
03
#65200
0!
0:
0(
#65400
1!
1:
1(
1<
1B
1D
1@
0?
b110000 >
b10010 =
19
b110000 6
b10010 5
13
0'
1&
0%
0$
00
0/
1,
#65600
0!
0:
0(
#65800
1!
1:
1(
1<
1B
1D
0@
09
03
#66000
0!
0:
0(
#66200
1!
1:
1(
1<
1B
1D
0@
1?
b11000010 >
b10111 =
18
b11000010 6
b10111 5
11
1'
1%
1/
0,
0+
1*
1)
#66400
0!
0:
0(
#66600
1!
1:
1(
b10110111 4
b10110111 7
b10110111 C
1<
1B
1D
0@
#66800
0!
0:
0(
#67000
1!
1:
1(
1<
1B
1D
1@
0?
b110000 >
b1011 =
19
08
b110000 6
b1011 5
13
01
0%
1$
0#
0/
1,
1+
0*
0)
#67200
0!
0:
0(
#67400
1!
1:
1(
bz 4
bz 7
bz C
1<
1B
1D
0@
09
03
#67600
0!
0:
0(
#67800
1!
1:
1(
1<
1B
1D
0@
1?
b10110000 >
b1100 =
18
b10110000 6
b1100 5
11
0'
0&
1%
1)
#68000
0!
0:
0(
#68200
1!
1:
1(
b1010010 4
b1010010 7
b1010010 C
1<
1B
1D
0@
#68400
0!
0:
0(
#68600
1!
1:
1(
1<
1B
1D
0@
0?
b11110110 >
b10 =
08
b11110110 6
b10 5
01
1&
0%
0$
1/
1.
1*
#68800
0!
0:
0(
#69000
1!
1:
1(
bz 4
bz 7
bz C
1<
1B
1D
0@
#69200
0!
0:
0(
#69400
1!
1:
1(
1<
1B
1D
1@
0?
b11011110 >
b10101 =
19
b11011110 6
b10101 5
13
1'
0&
1%
1#
1-
0+
#69600
0!
0:
0(
#69800
1!
1:
1(
1<
1B
1D
0@
09
03
#70000
0!
0:
0(
#70200
1!
1:
1(
1<
1B
1D
0@
1?
b10111001 >
b10 =
18
b10111001 6
b10 5
11
0'
1&
0%
0#
10
0/
0.
1+
0*
#70400
0!
0:
0(
#70600
1!
1:
1(
bx 4
bx 7
bx C
1<
1B
1D
0@
#70800
0!
0:
0(
#71000
1!
1:
1(
1<
1B
1D
0@
1?
b10100010 >
b1 =
b10100010 6
b1 5
1'
0&
00
1/
0-
0,
#71200
0!
0:
0(
#71400
1!
1:
1(
1<
1B
1D
0@
#71600
0!
0:
0(
#71800
1!
1:
1(
1<
1B
1D
0@
0?
b1001001 >
b11000 =
08
b1001001 6
b11000 5
01
0'
1$
1#
10
0/
1-
0+
1*
0)
#72000
0!
0:
0(
#72200
1!
1:
1(
bz 4
bz 7
bz C
1<
1B
1D
0@
#72400
0!
0:
0(
#72600
1!
1:
1(
1<
1B
1D
0@
1?
b111111 >
b1110 =
18
b111111 6
b1110 5
11
1&
1%
0#
1/
1.
1,
1+
0*
#72800
0!
0:
0(
#73000
1!
1:
1(
b1101111 4
b1101111 7
b1101111 C
1<
1B
1D
0@
#73200
0!
0:
0(
#73400
1!
1:
1(
1<
1B
1D
0@
0?
b1010111 >
b10010 =
08
b1010111 6
b10010 5
01
0%
0$
1#
0-
0+
1*
#73600
0!
0:
0(
#73800
1!
1:
1(
bz 4
bz 7
bz C
1<
1B
1D
0@
#74000
0!
0:
0(
#74200
1!
1:
1(
1<
1B
1D
0@
1?
b11001001 >
b10100 =
18
b11001001 6
b10100 5
11
0&
1%
0/
0.
1-
0,
1)
#74400
0!
0:
0(
#74600
1!
1:
1(
bx 4
bx 7
bx C
1<
1B
1D
0@
#74800
0!
0:
0(
#75000
1!
1:
1(
1<
1B
1D
0@
1?
b1111001 >
b1 =
b1111001 6
b1 5
1'
0%
0#
1,
1+
0)
#75200
0!
0:
0(
#75400
1!
1:
1(
1<
1B
1D
0@
#75600
0!
0:
0(
#75800
1!
1:
1(
1<
1B
1D
0@
1?
b1101000 >
b1101 =
b1101000 6
b1101 5
1%
1$
00
0,
#76000
0!
0:
0(
#76200
1!
1:
1(
1<
1B
1D
0@
#76400
0!
0:
0(
#76600
1!
1:
1(
1<
1B
1D
0@
0?
b11010 >
b1100 =
08
b11010 6
b1100 5
01
0'
1/
1,
0+
0*
#76800
0!
0:
0(
#77000
1!
1:
1(
bz 4
bz 7
bz C
1<
1B
1D
0@
#77200
0!
0:
0(
#77400
1!
1:
1(
1<
1B
1D
1@
0?
b10110101 >
b11101 =
19
b10110101 6
b11101 5
13
1'
1#
10
0/
1.
0-
1+
1)
#77600
0!
0:
0(
#77800
1!
1:
1(
1<
1B
1D
0@
09
03
#78000
0!
0:
0(
#78200
1!
1:
1(
1<
1B
1D
0@
0?
b1101110 >
b1100 =
b1101110 6
b1100 5
0'
0#
00
1/
1-
0,
1*
0)
#78400
0!
0:
0(
#78600
1!
1:
1(
1<
1B
1D
0@
#78800
0!
0:
0(
#79000
1!
1:
1(
1<
1B
1D
0@
1?
b1011010 >
b1001 =
18
b1011010 6
b1001 5
11
1'
0%
0.
1,
0+
#79200
0!
0:
0(
#79400
1!
1:
1(
bx 4
bx 7
bx C
1<
1B
1D
0@
#79600
0!
0:
0(
#79800
1!
1:
1(
1<
1B
1D
1@
0?
b11011101 >
b10100 =
19
08
b11011101 6
b10100 5
13
01
0'
1%
0$
1#
10
0/
1.
1)
#80000
0!
0:
0(
#80200
1!
1:
1(
bz 4
bz 7
bz C
1<
1B
1D
0@
09
03
#80400
0!
0:
0(
#80600
1!
1:
1(
1<
1B
1D
0@
1?
b1000001 >
b100 =
18
b1000001 6
b100 5
11
0#
0.
0-
0,
0)
#80800
0!
0:
0(
#81000
1!
1:
1(
b10110111 4
b10110111 7
b10110111 C
1<
1B
1D
0@
#81200
0!
0:
0(
#81400
1!
1:
1(
1<
1B
1D
